Final Project - Nhóm 26 - Project 2
…
data <- data %>%
  group_by(diabetes_012) %>%
  mutate(across(
    all_of(numeric_vars),
    ~ ifelse(. < quantile(., 0.25, na.rm = TRUE) - 1.5 * IQR(.),
             quantile(., 0.25, na.rm = TRUE) - 1.5 * IQR(.),
             ifelse(. > quantile(., 0.75, na.rm = TRUE) + 1.5 * IQR(.),
                    quantile(., 0.75, na.rm = TRUE) + 1.5 * IQR(.), .))
  )) %>%
  ungroup()

data

## # A tibble: 253,680 × 18
##    diabetes_012 high_bp high_chol chol_check   bmi smoker stroke
##    <fct>        <fct>   <fct>     <fct>      <dbl> <fct>  <fct> 
##  1 0            1       1         1             39 1      0     
##  2 0            0       0         0             25 1      0     
##  3 0            1       1         1             28 0      0     
##  4 0            1       0         1             27 0      0     
##  5 0            1       1         1             24 0      0     
##  6 0            1       1         1             25 1      0     
##  7 0            1       0         1             30 1      0     
##  8 0            1       1         1             25 1      0     
##  9 2            1       1         1             30 1      0     
## 10 0            0       0         1             24 0      0     
## # ℹ 253,670 more rows
## # ℹ 11 more variables: heart_diseaseor_attack <fct>, phys_activity <fct>,
## #   fruits <fct>, veggies <fct>, hvy_alcohol_consump <fct>,
## #   any_healthcare <fct>, no_docbc_cost <fct>, ment_hlth <dbl>,
## #   phys_hlth <dbl>, diff_walk <fct>, sex <fct>
…
data_smote = smotenc(df = data, var = "diabetes_012",
k = 5, over_ratio = 1)
data

## # A tibble: 253,680 × 18
##    diabetes_012 high_bp high_chol chol_check   bmi smoker stroke
##    <fct>        <fct>   <fct>     <fct>      <dbl> <fct>  <fct> 
##  1 0            1       1         1             39 1      0     
##  2 0            0       0         0             25 1      0     
##  3 0            1       1         1             28 0      0     
##  4 0            1       0         1             27 0      0     
##  5 0            1       1         1             24 0      0     
##  6 0            1       1         1             25 1      0     
##  7 0            1       0         1             30 1      0     
##  8 0            1       1         1             25 1      0     
##  9 2            1       1         1             30 1      0     
## 10 0            0       0         1             24 0      0     
## # ℹ 253,670 more rows
## # ℹ 11 more variables: heart_diseaseor_attack <fct>, phys_activity <fct>,
## #   fruits <fct>, veggies <fct>, hvy_alcohol_consump <fct>,
## #   any_healthcare <fct>, no_docbc_cost <fct>, ment_hlth <dbl>,
## #   phys_hlth <dbl>, diff_walk <fct>, sex <fct>
…
data <- data[, !names(data) %in% c("fruits","any_healthcare")]
# Load các thư viện cần thiết
data

## # A tibble: 253,680 × 16
##    diabetes_012 high_bp high_chol chol_check   bmi smoker stroke
##    <fct>        <fct>   <fct>     <fct>      <dbl> <fct>  <fct> 
##  1 0            1       1         1             39 1      0     
##  2 0            0       0         0             25 1      0     
##  3 0            1       1         1             28 0      0     
##  4 0            1       0         1             27 0      0     
##  5 0            1       1         1             24 0      0     
##  6 0            1       1         1             25 1      0     
##  7 0            1       0         1             30 1      0     
##  8 0            1       1         1             25 1      0     
##  9 2            1       1         1             30 1      0     
## 10 0            0       0         1             24 0      0     
## # ℹ 253,670 more rows
## # ℹ 9 more variables: heart_diseaseor_attack <fct>, phys_activity <fct>,
## #   veggies <fct>, hvy_alcohol_consump <fct>, no_docbc_cost <fct>,
## #   ment_hlth <dbl>, phys_hlth <dbl>, diff_walk <fct>, sex <fct>
…
train_data_smote

## # A tibble: 448,779 × 16
##    diabetes_012 high_bp high_chol chol_check   bmi smoker stroke
##    <fct>        <fct>   <fct>     <fct>      <dbl> <fct>  <fct> 
##  1 0            1       1         1          0.758 1      0     
##  2 0            1       1         1          0.424 0      0     
##  3 0            1       1         1          0.333 1      0     
##  4 0            1       0         1          0.485 1      0     
##  5 2            1       1         1          0.485 1      0     
##  6 2            0       0         1          0.333 1      0     
##  7 0            0       0         1          0.364 1      0     
##  8 2            1       1         1          0.424 0      0     
##  9 0            0       1         1          0.576 1      1     
## 10 0            1       1         1          0.212 0      0     
## # ℹ 448,769 more rows
## # ℹ 9 more variables: heart_diseaseor_attack <fct>, phys_activity <fct>,
## #   veggies <fct>, hvy_alcohol_consump <fct>, no_docbc_cost <fct>,
## #   ment_hlth <dbl>, phys_hlth <dbl>, diff_walk <fct>, sex <fct>
…
